(module MLPF-WB55-0xE3 (layer F.Cu) (tedit 60CE3486)
  (descr "2.4 GHz low pass filter matched to STM32WB5xxx / STM32WB3xxx")
  (attr smd)
  (fp_text reference REF** (at 0 -1.8) (layer F.SilkS)
    (effects (font (size 1 1) (thickness 0.15)))
  )
  (fp_text value BGA-6_2x3_1.0x1.6mm (at 0 1.8) (layer F.Fab)
    (effects (font (size 1 1) (thickness 0.15)))
  )
  (fp_line (start -0.62 -0.75) (end -0.62 -0.3) (layer F.SilkS) (width 0.12))
  (fp_line (start -0.45 -0.92) (end -0.62 -0.75) (layer F.SilkS) (width 0.12))
  (fp_line (start 0 -0.92) (end -0.45 -0.92) (layer F.SilkS) (width 0.12))
  (fp_line (start -0.7 1) (end -0.7 -1) (layer F.CrtYd) (width 0.05))
  (fp_line (start 0.7 1) (end -0.7 1) (layer F.CrtYd) (width 0.05))
  (fp_line (start 0.7 -1) (end 0.7 1) (layer F.CrtYd) (width 0.05))
  (fp_line (start -0.7 -1) (end 0.7 -1) (layer F.CrtYd) (width 0.05))
  (fp_circle (center -0.75 -1.05) (end -0.75 -0.95) (layer F.SilkS) (width 0.2))
  (fp_line (start -0.62 0.92) (end -0.62 0.52) (layer F.SilkS) (width 0.12))
  (fp_line (start -0.37 0.92) (end -0.62 0.92) (layer F.SilkS) (width 0.12))
  (fp_line (start 0.62 -0.92) (end 0.62 -0.52) (layer F.SilkS) (width 0.12))
  (fp_line (start 0.37 -0.92) (end 0.62 -0.92) (layer F.SilkS) (width 0.12))
  (fp_line (start 0.62 0.92) (end 0.62 0.52) (layer F.SilkS) (width 0.12))
  (fp_line (start 0.37 0.92) (end 0.62 0.92) (layer F.SilkS) (width 0.12))
  (fp_line (start 0.62 -0.92) (end 0.62 -0.52) (layer F.SilkS) (width 0.12))
  (fp_line (start 0.37 -0.92) (end 0.62 -0.92) (layer F.SilkS) (width 0.12))
  (fp_line (start 0.62 -0.92) (end 0.62 -0.52) (layer F.SilkS) (width 0.12))
  (fp_line (start 0.37 -0.92) (end 0.62 -0.92) (layer F.SilkS) (width 0.12))
  (fp_line (start 0.5 -0.8) (end 0 -0.8) (layer F.Fab) (width 0.1))
  (fp_line (start 0.5 0.8) (end 0.5 -0.8) (layer F.Fab) (width 0.1))
  (fp_line (start -0.5 0.8) (end 0.5 0.8) (layer F.Fab) (width 0.1))
  (fp_line (start -0.5 -0.3) (end -0.5 0.8) (layer F.Fab) (width 0.1))
  (fp_line (start 0 -0.8) (end -0.5 -0.3) (layer F.Fab) (width 0.1))
  (pad OUT smd rect (at -0.25 -0.587) (size 0.3 0.3) (layers F.Cu F.Paste F.Mask)
    (solder_mask_margin -0.05) (solder_paste_margin -0.05) (clearance 0.15))
  (pad GND smd rect (at -0.25 0) (size 0.3 0.3) (layers F.Cu F.Paste F.Mask)
    (solder_mask_margin -0.05) (solder_paste_margin -0.05))
  (pad IN smd rect (at -0.25 0.587) (size 0.3 0.3) (layers F.Cu F.Paste F.Mask)
    (solder_mask_margin -0.05) (solder_paste_margin -0.05) (clearance 0.15))
  (pad GND smd rect (at 0.25 -0.587) (size 0.3 0.3) (layers F.Cu F.Paste F.Mask)
    (solder_mask_margin -0.05) (solder_paste_margin -0.05))
  (pad GND smd rect (at 0.25 0) (size 0.3 0.3) (layers F.Cu F.Paste F.Mask)
    (solder_mask_margin -0.05) (solder_paste_margin -0.05))
  (pad GND smd rect (at 0.25 0.587) (size 0.3 0.3) (layers F.Cu F.Paste F.Mask)
    (solder_mask_margin -0.05) (solder_paste_margin -0.05))
)
